; Engine configuration file.
; It's best edited using the editor UI and not directly,
; since the parameters that go here are not all obvious.
;
; Format:
;   [section] ; section goes between []
;   param=value ; assign values to parameters

config_version=4

_global_script_classes=[  ]
_global_script_class_icons={
}

[application]

config/name="Auto-scaling TouchScreenButton Demo"
run/main_scene="res://Main.tscn"
config/icon="res://.icon.png"

[display]

window/dpi/allow_hidpi=true

[gui]

theme/use_hidpi=true

[input_devices]

pointing/emulate_touch_from_mouse=true
pointing/emulate_mouse_from_touch=false

[rendering]

quality/driver/driver_name="GLES2"
vram_compression/import_etc=true
vram_compression/import_etc2=false
